…
## Part 2. Exploring the data

### How many aisles are there, and which aisles are the most items ordered from?

``` r
instacart |> 
  group_by(aisle_id, aisle) |> 
  summarize(n_obs = n()) |> 
  arrange(desc(n_obs))
```

    ## `summarise()` has grouped output by 'aisle_id'. You can override using the
    ## `.groups` argument.

    ## # A tibble: 134 × 3
    ## # Groups:   aisle_id [134]
    ##    aisle_id aisle                          n_obs
    ##       <int> <chr>                          <int>
    ##  1       83 fresh vegetables              150609
    ##  2       24 fresh fruits                  150473
    ##  3      123 packaged vegetables fruits     78493
    ##  4      120 yogurt                         55240
    ##  5       21 packaged cheese                41699
    ##  6      115 water seltzer sparkling water  36617
    ##  7       84 milk                           32644
    ##  8      107 chips pretzels                 31269
    ##  9       91 soy lactosefree                26240
    ## 10      112 bread                          23635
    ## # ℹ 124 more rows
…
